serialsend/serialsend.sim/sim_1/behav/xsim/sending_tx.vcd
$date
   Thu Dec  4 21:55:44 2025
$end
$version
  2020.2
$end
$timescale
  1ps
$end
$scope module send_tx_tb $end
$var reg 1 ! clk $end
$var reg 1 " reset $end
$var reg 1 # BTNU $end
$var wire 1 $ tx $end
$var wire 1 % rx $end
$scope module transmitTest $end
$var wire 1 & clk $end
$var wire 1 ' reset $end
$var wire 1 ( BTNU $end
$var wire 1 ) ledone $end
$var wire 1 $ tx $end
$var wire 1 * uart_tx_busy $end
$var wire 1 + tx_valid $end
$var wire 1 , baud_clk $end
$var reg 32 - xo [31:0] $end
$var reg 32 . xt [31:0] $end
$var reg 32 / yo [31:0] $end
$var reg 32 0 yt [31:0] $end
$var reg 2 1 intensity [1:0] $end
$var reg 1 2 g_send $end
$var reg 1 3 see_gsend $end
$var reg 1 4 prev_gsend $end
$var wire 1 5 g_busy $end
$var wire 8 6 test_letter [7:0] $end
$var reg 1 7 bup $end
$scope module uut $end
$var wire 1 & clk $end
$var wire 1 ' reset $end
$var wire 1 $ tx_send $end
$var wire 1 * tx_busy $end
$var wire 1 + tx_start $end
$var wire 8 6 tx_data [7:0] $end
$var reg 1 8 BAUD_CLK $end
$var reg 10 9 cycle_counter [9:0] $end
$var reg 2 : state [1:0] $end
$var reg 4 ; bit_counter [3:0] $end
$var reg 8 < shifted_data [7:0] $end
$var reg 1 = tx_sdata $end
$upscope $end
$scope module getting_gcode $end
$var wire 32 > xo [31:0] $end
$var wire 32 ? xt [31:0] $end
$var wire 32 @ yo [31:0] $end
$var wire 32 A yt [31:0] $end
$var wire 2 B intensity [1:0] $end
$var wire 1 C g_send $end
$var wire 1 5 g_busy $end
$var wire 1 & clk $end
$var wire 1 ' reset $end
$var wire 1 D tx_ready $end
$var reg 1 E tx_valid $end
$var reg 8 F tx_data [7:0] $end
$var reg 2 G state [1:0] $end
$var reg 9 H index [8:0] $end
$var reg 1 I first_cycle $end
$var reg 1 J start_up $end
$var reg 1 K prev_ready $end
$var reg 1 L see_ready $end
$var reg 512 M startup [511:0] $end
$var reg 8 N g_value [7:0] $end
$var wire 8 O xa0 [7:0] $end
$var wire 8 P xa1 [7:0] $end
$var wire 8 Q xa2 [7:0] $end
$var wire 8 R xa3 [7:0] $end
$var wire 8 S xa4 [7:0] $end
$var wire 8 T xa5 [7:0] $end
$var wire 8 U xa6 [7:0] $end
$var wire 8 V ya0 [7:0] $end
$var wire 8 W ya1 [7:0] $end
$var wire 8 X ya2 [7:0] $end
$var wire 8 Y ya3 [7:0] $end
$var wire 8 Z ya4 [7:0] $end
$var wire 8 [ ya5 [7:0] $end
$var wire 8 \ ya6 [7:0] $end
$var reg 512 ] g_output [511:0] $end
$scope module x_value $end
$var wire 16 ^ val_100 [15:0] $end
$var reg 8 _ ch0 [7:0] $end
$var reg 8 ` ch1 [7:0] $end
$var reg 8 a ch2 [7:0] $end
$var reg 8 b ch3 [7:0] $end
$var reg 8 c ch4 [7:0] $end
$var reg 8 d ch5 [7:0] $end
$var reg 8 e ch6 [7:0] $end
$var reg 16 f tmp [15:0] $end
$var reg 16 g mag [15:0] $end
$var reg 14 h int_part [13:0] $end
$var reg 7 i frac_part [6:0] $end
$var reg 4 j hundreds [3:0] $end
$var reg 4 k tens [3:0] $end
$var reg 4 l ones [3:0] $end
$var reg 4 m frac_tens [3:0] $end
$var reg 4 n frac_ones [3:0] $end
$upscope $end
$scope module y_value $end
$var wire 16 o val_100 [15:0] $end
$var reg 8 p ch0 [7:0] $end
$var reg 8 q ch1 [7:0] $end
$var reg 8 r ch2 [7:0] $end
$var reg 8 s ch3 [7:0] $end
$var reg 8 t ch4 [7:0] $end
$var reg 8 u ch5 [7:0] $end
$var reg 8 v ch6 [7:0] $end
$var reg 16 w tmp [15:0] $end
$var reg 16 x mag [15:0] $end
$var reg 14 y int_part [13:0] $end
$var reg 7 z frac_part [6:0] $end
$var reg 4 { hundreds [3:0] $end
$var reg 4 | tens [3:0] $end
$var reg 4 } ones [3:0] $end
$var reg 4 ~ frac_tens [3:0] $end
$var reg 4 !! frac_ones [3:0] $end
$upscope $end
$upscope $end
$upscope $end
$upscope $end
$enddefinitions $end
#0
$dumpvars
0!
bx !!
x"
0#
1$
z%
0&
x'
0(
x)
0*
0+
z,
bx -
bx .
bx /
bx 0
bx 1
x2
x3
x4
15
b0 6
x7
08
b0 9
b0 :
b0 ;
bx <
1=
bx >
bx ?
bx @
bx A
bx B
xC
1D
0E
b0 F
b0 G
b0 H
1I
1J
0K
0L
b10100011000001011010001000000011000001011001001000000011000001011000001000000011001000111001010001110000101000110100001101010100011100100000001101000011100101000111001000000011011100110001010001110010000000110001001100100100011100100000001100000011100101000111 M
b110000 N
bx O
bx P
bx Q
bx R
bx S
bx T
bx U
bx V
bx W
bx X
bx Y
bx Z
bx [
bx \
bx ]
bx ^
bx _
bx `
bx a
bx b
bx c
bx d
bx e
bx f
bx g
bx h
bx i
bx j
bx k
bx l
bx m
bx n
bx o
bx p
bx q
bx r
bx s
bx t
bx u
bx v
bx w
bx x
bx y
bx z
bx {
bx |
bx }
bx ~
$end
#5000
1!
1&
0)
07
b1 9
0I
1K
1L
b1010001100000011000000110000001100010100011000100000xxxxxxxxxxxxxxxx0101101000100000xxxxxxxxxxxxxxxxxxxxxxxxxxxxxxxxxxxxxxxxxxxxxxxxxxxxxxxx0101100100100000xxxxxxxxxxxxxxxxxxxxxxxxxxxxxxxxxxxxxxxxxxxxxxxxxxxxxxxx01011000001000000011000001000111 ]
#10000
0!
0&
#15000
1!
1&
1+
b1000111 6
b10 9
1E
b1000111 F
b1 H
0L
#20000
0!
0&
#25000
1!
1&
1*
0+
b11 9
b1 :
b1000111 <
0D
0E
#30000
0!
0&
#35000
1!
1&
b100 9
0K
#40000
0!
0&
#45000
1!
1&
b101 9
#50000
0!
0&
#55000
1!
1&
b110 9
#60000
0!
0&
#65000
1!
1&
b111 9
#70000
0!
0&
#75000
1!
1&
b1000 9
#80000
0!
0&
#85000
1!
1&
b1001 9
#90000
0!
0&
#95000
1!
1&
b1010 9
#100000
0!
0&
#105000
1!
1&
b1011 9
#110000
0!
0&
#115000
1!
1&
b1100 9
#120000
0!
0&
#125000
1!
1&
b1101 9
#130000
0!
0&
#135000
1!
1&
b1110 9
#140000
0!
0&
#145000
1!
1&
b1111 9
#150000
0!
0&
#155000
1!
1&
b10000 9
#160000
0!
0&
#165000
1!
1&
b10001 9
#170000
0!
0&
#175000
1!
1&
b10010 9
#180000
0!
0&
#185000
1!
1&
b10011 9
#190000
0!
0&
#195000
1!
1#
1&
1(
1)
17
b10100 9
#200000
0!
0&
#205000
1!
1&
b10101 9
#210000
0!
0&
#215000
1!
1&
b10110 9
#220000
0!
0&
#225000
1!
1&
b10111 9
#230000
0!
0&
#235000
1!
1&
b11000 9
#240000
0!
0&
#245000
1!
0#
1&
0(
0)
07
b11001 9
#250000
0!
0&
#255000
1!
1&
b11010 9
#260000
0!
0&
#265000
1!
1&
b11011 9
#270000
0!
0&
#275000
1!
1&
b11100 9
#280000
0!
0&
#285000
1!
1&
b11101 9
#290000
0!
0&
#295000
1!
1&
b11110 9
#300000
0!
0&
#305000
1!
1&
b11111 9
#310000
0!
0&
#315000
1!
1&
b100000 9
#320000
0!
0&
#325000
1!
1&
b100001 9
#330000
0!
0&
#335000
1!
1&
b100010 9
#340000
0!
0&
#345000
1!
1&
b100011 9
#350000
0!
0&
#355000
1!
1&
b100100 9
#360000
0!
0&
#365000
1!
1&
b100101 9
#370000
0!
0&
#375000
1!
1&
b100110 9
#380000
0!
0&
#385000
1!
1&
b100111 9
#390000
0!
0&
#395000
1!
1&
b101000 9
#400000
0!
0&
#405000
1!
1&
b101001 9
#410000
0!
0&
#415000
1!
1&
b101010 9
#420000
0!
0&
#425000
1!
1&
b101011 9
#430000
0!
0&
#435000
1!
1&
b101100 9
#440000
0!
0&
#445000
1!
1&
b101101 9
#450000
0!
0&
#455000
1!
1&
b101110 9
#460000
0!
0&
#465000
1!
1&
b101111 9
#470000
0!
0&
#475000
1!
1&
b110000 9
#480000
0!
0&
#485000
1!
1&
b110001 9
#490000
0!
0&
#495000
1!
1&
b110010 9
#500000
0!
0&
#505000
1!
1&
b110011 9
#510000
0!
0&
#515000
1!
1&
b110100 9
#520000
0!
0&
#525000
1!
1&
b110101 9
#530000
0!
0&
#535000
1!
1&
b110110 9
#540000
0!
0&
#545000
1!
1&
b110111 9
#550000
0!
0&
#555000
1!
1&
b111000 9
#560000
0!
0&
#565000
1!
1&
b111001 9
#570000
0!
0&
#575000
1!
1&
b111010 9
#580000
0!
0&
#585000
1!
1&
b111011 9
#590000
0!
0&
#595000
1!
1&
b111100 9
#600000
0!
0&
#605000
1!
1&
b111101 9
#610000
0!
0&
#615000
1!
1&
b111110 9
#620000
0!
0&
#625000
1!
1&
b111111 9
#630000
0!
0&
#635000
1!
1&
b1000000 9
#640000
0!
0&
#645000
1!
1&
b1000001 9
#650000
0!
0&
#655000
1!
1&
b1000010 9
#660000
0!
0&
#665000
1!
1&
b1000011 9
#670000
0!
0&
#675000
1!
1&
b1000100 9
#680000
0!
0&
#685000
1!
1&
b1000101 9
#690000
0!
0&
#695000
1!
1&
b1000110 9
#700000
0!
0&
#705000
1!
1&
b1000111 9
#710000
0!
0&
#715000
1!
1&
b1001000 9
#720000
0!
0&
#725000
1!
1&
b1001001 9
#730000
0!
0&
#735000
1!
1&
b1001010 9
#740000
0!
0&
#745000
1!
1&
b1001011 9
#750000
0!
0&
#755000
1!
1&
b1001100 9
#760000
0!
0&
#765000
1!
1&
b1001101 9
#770000
0!
0&
#775000
1!
1&
b1001110 9
#780000
0!
0&
#785000
1!
1&
b1001111 9
#790000
0!
0&
#795000
1!
1&
b1010000 9
#800000
0!
0&
#805000
1!
1&
b1010001 9
#810000
0!
0&
#815000
1!
1&
b1010010 9
#820000
0!
0&
#825000
1!
1&
b1010011 9
#830000
0!
0&
#835000
1!
1&
b1010100 9
#840000
0!
0&
#845000
1!
1&
b1010101 9
#850000
0!
0&
#855000
1!
1&
b1010110 9
#860000
0!
0&
#865000
1!
1&
b1010111 9
#870000
0!
0&
#875000
1!
1&
b1011000 9
#880000
0!
0&
#885000
1!
1&
b1011001 9
#890000
0!
0&
#895000
1!
1&
b1011010 9
#900000
0!
0&
#905000
1!
1&
b1011011 9
#910000
0!
0&
#915000
1!
1&
b1011100 9
#920000
0!
0&
#925000
1!
1&
b1011101 9
#930000
0!
0&
#935000
1!
1&
b1011110 9
#940000
0!
0&
#945000
1!
1&
b1011111 9
#950000
0!
0&
#955000
1!
1&
b1100000 9
#960000
0!
0&
#965000
1!
1&
b1100001 9
#970000
0!
0&
#975000
1!
1&
b1100010 9
#980000
0!
0&
#985000
1!
1&
b1100011 9
#990000
0!
0&
#995000
1!
1&
b1100100 9
